cBioPortal API Workshop
…
How to use the cBioPortal REST API

Now that the tedious part of installing software is over we can start to use the API.

Initialize the API client

Initialize the API with the following commands:

cbio <- cBioPortal()
cbio

## service: cBioPortal
## tags(); use cbioportal$<tab completion>:
## # A tibble: 70 x 3
##    tag             operation                          summary                   
##    <chr>           <chr>                              <chr>                     
##  1 A. Cancer Types getAllCancerTypesUsingGET          Get all cancer types      
##  2 A. Cancer Types getCancerTypeUsingGET              Get a cancer type         
##  3 B. Studies      fetchStudiesUsingPOST              Fetch studies by IDs      
##  4 B. Studies      getAllStudiesUsingGET              Get all studies           
##  5 B. Studies      getStudyUsingGET                   Get a study               
##  6 B. Studies      getTagsForMultipleStudiesUsingPOST Get the study tags by IDs 
##  7 B. Studies      getTagsUsingGET                    Get the tags of a study   
##  8 C. Patients     fetchPatientsUsingPOST             fetchPatients             
##  9 C. Patients     getAllPatientsInStudyUsingGET      Get all patients in a stu
## 10 C. Patients     getAllPatientsUsingGET             Get all patients          
## #  with 60 more rows
## tag values:
##   A. Cancer Types, B. Studies, C. Patients, D. Samples, E. Sample
##   Lists, F. Clinical Attributes, G. Clinical Data, H. Clinical Events,
##   I. Molecular Data, J. Molecular Profiles, K. Mutations, L. Discrete
##   Copy Number Alterations, M. Copy Number Segments, N. Genes, O. Gene
##   Panels, P. Generic Assay, Q. Structural Variants, R. Reference Genome
##   Genes, S. Resource Definitions, T. Resource Data
## schemas():
…
## Answer 1: There are 285 studies in cBioPortal

As you can see, this took quite a few steps. The parsing of responses semi-manually becomes tedious, which is why cBioPortalData has all kinds of convenience functions that do this for you. E.g. instead of having to figure out the endpoint for studies one can simply use the function getStudies:

# First time you run this command it might ask
# to set up a cache folder like:
#
# Create cBioPortalData cache at 
#   /home/jovyan/.cache/cBioPortalData? [y/n]:
#
# If that's the case, open the Console in R Studio and press y
studies <- getStudies(cbio)
studies

## # A tibble: 284 x 13
##    name  shortName description publicStudy pmid  citation groups status
##    <chr> <chr>     <chr>       <lgl>       <chr> <chr>    <chr>   <int>
##  1 Chol Cholangi Exome sequ TRUE        2418 Chan-on "PUBL      0
##  2 Cuta CTCL (Co Whole-Exom TRUE        2655 Da Silv ""          0
##  3 Esop ESCC (UC Whole exom TRUE        2468 Lin et  "PUBL      0
##  4 Oral Head & n Comprehens TRUE        2361 Pickeri ""          0
##  5 Hepa HCC (Ins Whole-exom TRUE        2582 Schulze "PUBL      0
##  6 Uvea UM (QIMR) Whole-geno TRUE        2668 Johanss "PUBL      0
##  7 Neur NBL (AMC) Whole geno TRUE        2236 Molenaa "PUBL      0
##  8 Naso NPC (Sin Whole exom TRUE        2495 Lin et  "PUBL      0
##  9 Thym TET (NCI) Whole exom TRUE        2497 Petrini "PUBL      0
## 10 Neur NBL (Col Whole-geno TRUE        2646 Peifer  ""          0
## #  with 274 more rows, and 5 more variables: importDate <chr>,
## #   allSampleCount <int>, studyId <chr>, cancerTypeId <chr>,
## #   referenceGenome <chr>
…
